<?xml version="1.0" encoding="utf-8"?>
<!-- Generator: Adobe Illustrator 19.2.1, SVG Export Plug-In . SVG Version: 6.00 Build 0)  -->
<svg version="1.1" id="Layer_1" xmlns="http://www.w3.org/2000/svg" xmlns:xlink="http://www.w3.org/1999/xlink" x="0px" y="0px"
	 width="384px" height="384px" viewBox="0 0 384 384" style="enable-background:new 0 0 384 384;" xml:space="preserve">
<style type="text/css">
	<!-- .st0{fill:#58595B;} -->
	.st0{fill:#fff;}
</style>
<g id="Layer_x0020_1">
	<path class="st0" d="M22.1,7.1h339c8.2,0,15,6.7,15,15v115.7v101.8v97.5h-0.5c-0.7,3.4-4.3,6-8.7,6c-1.8,0-3.5-0.5-4.9-1.2
		c-14.7-8.2-88.5-68.4-108.6-87.3H22.1c-8.2,0-15-6.7-15-15V22.1C7.1,13.8,13.9,7.1,22.1,7.1L22.1,7.1z M69,51.6h245.4
		c3.9,0,7.1,3.2,7.1,7.1v21.2c0,3.9-3.2,7.1-7.1,7.1H69c-3.9,0-7.1-3.2-7.1-7.1V58.6C61.9,54.8,65.1,51.6,69,51.6z M69,173.4h118.1
		c3.9,0,7.1,3.2,7.1,7.1v21.2c0,3.9-3.2,7.1-7.1,7.1H69c-3.9,0-7.1-3.2-7.1-7.1v-21.2C61.9,176.6,65.1,173.4,69,173.4z M69,113.2
		h245.4c3.9,0,7.1,3.2,7.1,7.1v21.2c0,3.9-3.2,7.1-7.1,7.1H69c-3.9,0-7.1-3.2-7.1-7.1v-21.2C61.9,116.4,65.1,113.2,69,113.2z"/>
</g>
</svg>
