<?xml version="1.0" encoding="utf-8"?>
<!-- Generator: Adobe Illustrator 19.2.1, SVG Export Plug-In . SVG Version: 6.00 Build 0)  -->
<svg version="1.1" id="Layer_1" xmlns="http://www.w3.org/2000/svg" xmlns:xlink="http://www.w3.org/1999/xlink" x="0px" y="0px"
	 width="24px" height="24px" viewBox="0 0 24 24" style="enable-background:new 0 0 24 24;" xml:space="preserve">
<style type="text/css">
	<!-- .st0{fill:#58595B;} -->
	.st0{fill:#fff;}
</style>
<g>
	<path class="st0" d="M17.5,6c-0.2,0-0.4,0-0.6,0.1C16.5,3.7,14.4,2,12,2C9.9,2,8.2,3.3,7.4,5C7.3,5,7.1,5,7,5C4.8,5,3,6.8,3,9
		s1.8,4,4,4c1.2,0,9.2,0,10.5,0c1.9,0,3.5-1.6,3.5-3.5S19.4,6,17.5,6z"/>
	<rect x="4" y="14" class="st0" width="2" height="2"/>
	<rect x="8" y="14" class="st0" width="2" height="2"/>
	<rect x="6" y="16" class="st0" width="2" height="2"/>
	<rect x="4" y="18" class="st0" width="2" height="2"/>
	<rect x="8" y="18" class="st0" width="2" height="2"/>
	<rect x="13" y="14" class="st0" width="2" height="2"/>
	<rect x="17" y="14" class="st0" width="2" height="2"/>
	<rect x="15" y="16" class="st0" width="2" height="2"/>
	<rect x="13" y="18" class="st0" width="2" height="2"/>
	<rect x="17" y="18" class="st0" width="2" height="2"/>
</g>
</svg>
